[
    {
        "studentCode" : "18T1021334",
        "fullName" : "Nguyễn Đôn Kim Trung",
        "dateOfBirth" : "19/03/2000",
        "course" : "K42",
        "major" : "CNTT",
        "classNumber" : "1",
        "marks" : {
            "attendancePoints" : 10.0,
            "testMarks1" : 10.0,
            "testMarks2" : 10.0,
            "finalExamMarks" : 10
        }
    },
    {
        "studentCode" : "18T1021035",
        "fullName" : "Huỳnh Ngọc Duy",
        "dateOfBirth" : "24/04/2000",
        "course" : "K42",
        "major" : "CNTT",
        "classNumber" : "1",
        "marks" : {
            "attendancePoints" : 10.0,
            "testMarks1" : 9.0,
            "testMarks2" : 9.0,
            "finalExamMarks" : 8.0
        }
    },
    {
        "studentCode" : "18T1021090",
        "fullName" : "Trần Văn Phước Hiếu",
        "dateOfBirth" : "17/10/2000",
        "course" : "K42",
        "major" : "CNTT",
        "classNumber" : "1",
        "marks" : {
            "attendancePoints" : 10.0,
            "testMarks1" : 7.0,
            "testMarks2" : 8.0,
            "finalExamMarks" : 7
        }
    },
    {
        "studentCode" : "18T1021128",
        "fullName" : "Lê Thị Thanh Huyền",
        "dateOfBirth" : "19/03/2000",
        "course" : "K42",
        "major" : "CNTT",
        "classNumber" : "1",
        "marks" : {
            "attendancePoints" : 10.0,
            "testMarks1" : 8.0,
            "testMarks2" : 9.0,
            "finalExamMarks" : 10
        }
    },
    {
        "studentCode" : "18T1021134",
        "fullName" : "Nguyễn Văn Hùng",
        "dateOfBirth" : "27/01/2000",
        "course" : "K42",
        "major" : "CNTT",
        "classNumber" : "2",
        "marks" : {
            "attendancePoints" : 10.0,
            "testMarks1" : 10.0,
            "testMarks2" : 10.0,
            "finalExamMarks" : 10
        }
    },
    {
        "studentCode" : "18T1021176",
        "fullName" : "Trương Viết Lũy",
        "dateOfBirth" : "30/08/2000",
        "course" : "K42",
        "major" : "CNTT",
        "classNumber" : "1",
        "marks" : {
            "attendancePoints" : 10.0,
            "testMarks1" : 8.0,
            "testMarks2" : 9.0,
            "finalExamMarks" : 9
        }
    },
    {
        "studentCode" : "18T1021188",
        "fullName" : "Châu Văn Nam",
        "dateOfBirth" : "16/11/2000",
        "course" : "K42",
        "major" : "CNTT",
        "classNumber" : "3",
        "marks" : {
            "attendancePoints" : 10.0,
            "testMarks1" : 9.0,
            "testMarks2" : 9.0,
            "finalExamMarks" : 10
        }
    },
    {
        "studentCode" : "18T1021197",
        "fullName" : "Hà Xuân Nghĩa",
        "dateOfBirth" : "25/05/2000",
        "course" : "K42",
        "major" : "CNTT",
        "classNumber" : "1",
        "marks" : {
            "attendancePoints" : 10.0,
            "testMarks1" : 10.0,
            "testMarks2" : 10.0,
            "finalExamMarks" : 9
        }
    },
    {
        "studentCode" : "17T1021190",
        "fullName" : "Huỳnh Nhật",
        "dateOfBirth" : "15/03/1999",
        "course" : "K41",
        "major" : "CNTT",
        "classNumber" : "1",
        "marks" : {
            "attendancePoints" : 10.0,
            "testMarks1" : 10.0,
            "testMarks2" : 8.0,
            "finalExamMarks" : 8
        }
    },
    {
        "studentCode" : "18T1021230",
        "fullName" : "Lê Thị Ngọc Như",
        "dateOfBirth" : "04/03/2000",
        "course" : "K42",
        "major" : "CNTT",
        "classNumber" : "1",
        "marks" : {
            "attendancePoints" : 10.0,
            "testMarks1" : 7.0,
            "testMarks2" : 8.0,
            "finalExamMarks" : 7
        }
    },
    {
        "studentCode" : "18T1021245",
        "fullName" : "Phan Minh Phước",
        "dateOfBirth" : "20/10/2000",
        "course" : "K42",
        "major" : "CNTT",
        "classNumber" : "2",
        "marks" : {
            "attendancePoints" : 10.0,
            "testMarks1" : 10.0,
            "testMarks2" : 9.0,
            "finalExamMarks" : 8
        }
    },
    {
        "studentCode" : "18T1021276",
        "fullName" : "Lê Thị Minh Tâm",
        "dateOfBirth" : "17/03/2000",
        "course" : "K42",
        "major" : "CNTT",
        "classNumber" : "1",
        "marks" : {
            "attendancePoints" : 10.0,
            "testMarks1" : 8.0,
            "testMarks2" : 8.3,
            "finalExamMarks" : 10
        }
    },
    {
        "studentCode" : "18T1021282",
        "fullName" : "Trần Nguyễn Tấn",
        "dateOfBirth" : "01/11/2000",
        "course" : "K42",
        "major" : "CNTT",
        "classNumber" : "2",
        "marks" : {
            "attendancePoints" : 10.0,
            "testMarks1" : 9.5,
            "testMarks2" : 10.0,
            "finalExamMarks" : 8.5
        }
    },
    {
        "studentCode" : "18T1021288",
        "fullName" : "Lê Huy An Thái",
        "dateOfBirth" : "19/09/2000",
        "course" : "K42",
        "major" : "CNTT",
        "classNumber" : "2",
        "marks" : {
            "attendancePoints" : 8.0,
            "testMarks1" : 7.0,
            "testMarks2" : 6.5,
            "finalExamMarks" : 8
        }
    },
    {
        "studentCode" : "18T1021319",
        "fullName" : "Thân Trọng Tiến",
        "dateOfBirth" : "07/12/2000",
        "course" : "K42",
        "major" : "CNTT",
        "classNumber" : "1",
        "marks" : {
            "attendancePoints" : 10.0,
            "testMarks1" : 10.0,
            "testMarks2" : 10.0,
            "finalExamMarks" : 10
        }
    },
    {
        "studentCode" : "18T1021325",
        "fullName" : "Dương Thị Kiều Trang",
        "dateOfBirth" : "13/06/2000",
        "course" : "K42",
        "major" : "CNTT",
        "classNumber" : "2",
        "marks" : {
            "attendancePoints" : 10.0,
            "testMarks1" : 10.0,
            "testMarks2" : 10.0,
            "finalExamMarks" : 10
        }
    },
    {
        "studentCode" : "18T1021345",
        "fullName" : "Võ Anh Tuấn",
        "dateOfBirth" : "10/03/2000",
        "course" : "K42",
        "major" : "CNTT",
        "classNumber" : "2",
        "marks" : {
            "attendancePoints" : 10.0,
            "testMarks1" : 8.0,
            "testMarks2" : 9.0,
            "finalExamMarks" : 7.5
        }
    },
    {
        "studentCode" : "18T1021349",
        "fullName" : "Trần Đình Tùng",
        "dateOfBirth" : "12/07/2000",
        "course" : "K42",
        "major" : "CNTT",
        "classNumber" : "1",
        "marks" : {
            "attendancePoints" : 5.0,
            "testMarks1" : 6.0,
            "testMarks2" : 5.6,
            "finalExamMarks" : 7
        }
    },
    {
        "studentCode" : "18T1021352",
        "fullName" : "Trần Thị Thảo Vân",
        "dateOfBirth" : "23/11/2000",
        "course" : "K42",
        "major" : "CNTT",
        "classNumber" : "1",
        "marks" : {
            "attendancePoints" : 10.0,
            "testMarks1" : 8.0,
            "testMarks2" : 8.6,
            "finalExamMarks" : 8
        }
    },
    {
        "studentCode" : "18T1021365",
        "fullName" : "Lê Nguyễn Tường Vy",
        "dateOfBirth" : "04/12/2000",
        "course" : "K42",
        "major" : "CNTT",
        "classNumber" : "2",
        "marks" : {
            "attendancePoints" : 8.0,
            "testMarks1" : 8.0,
            "testMarks2" : 9.0,
            "finalExamMarks" : 8
        }
    },
    {
        "studentCode" : "18T1021367",
        "fullName" : "Lê Quang Chí Vỹ",
        "dateOfBirth" : "18/02/2000",
        "course" : "K42",
        "major" : "CNTT",
        "classNumber" : "2",
        "marks" : {
            "attendancePoints" : 10.0,
            "testMarks1" : 7.0,
            "testMarks2" : 9.0,
            "finalExamMarks" : 8
        }
    }
]